Baseline/src_opt/ncverilog.log
ncverilog: 15.20-s039: (c) Copyright 1995-2017 Cadence Design Systems, Inc.
TOOL:	ncverilog	15.20-s039: Started on Jun 25, 2020 at 01:25:56 CST
ncverilog
	Final_tb.v
	CHIP_opt.v
	slow_memory.v
	+define+hasHazard
	+access+r
file: CHIP_opt.v
	module worklib.Decoder:v
		errors: 0, warnings: 0
	module worklib.ALUCtrl:v
		errors: 0, warnings: 0
	module worklib.ALU:v
		errors: 0, warnings: 0
	module worklib.Registers:v
		errors: 0, warnings: 0
	module worklib.Imm_Gen:v
		errors: 0, warnings: 0
	module worklib.cache:v
		errors: 0, warnings: 0
	module worklib.forwarding_unit:v
		errors: 0, warnings: 0
	module worklib.hazard_process:v
		errors: 0, warnings: 0
	module worklib.PC_trunc:v
		errors: 0, warnings: 0
	module worklib.PC:v
		errors: 0, warnings: 0
	module worklib.CHIP:v
		errors: 0, warnings: 0
	module worklib.RISCV_Pipeline:v
		errors: 0, warnings: 0
		Caching library 'worklib' ....... Done
	Elaborating the design hierarchy:
		$readmemb (`DMEM_INIT, slow_memD.mem ); // initialize data in DMEM
		                                   |
ncelab: *W,MEMODR (./Final_tb.v,128|37): $readmem default memory order incompatible with IEEE1364.
		$readmemh (`IMEM_INIT, slow_memI.mem ); // initialize data in IMEM
		                                   |
ncelab: *W,MEMODR (./Final_tb.v,129|37): $readmem default memory order incompatible with IEEE1364.
	Building instance overlay tables: .................... Done
	Generating native compiled code:
		worklib.ALU:v <0x6ab1b346>
			streams:   3, words:  1202
		worklib.ALUCtrl:v <0x286f6c3d>
			streams:   1, words:  1382
		worklib.CHIP:v <0x78e60ba7>
			streams:   1, words:   101
		worklib.Decoder:v <0x3a5e6962>
			streams:   1, words:  7120
		worklib.Imm_Gen:v <0x3be55abf>
			streams:   2, words:  3966
		worklib.PC:v <0x16019dac>
			streams:   3, words:   551
		worklib.PC_trunc:v <0x4cf2035e>
			streams:   3, words:   630
		worklib.RISCV_Pipeline:v <0x6fd25d16>
			streams:  34, words: 27093
		worklib.Registers:v <0x6944fe9c>
			streams:   6, words: 14499
		worklib.cache:v <0x6042bbcf>
			streams:  10, words: 53372
		worklib.forwarding_unit:v <0x63271b79>
			streams:   2, words:  2275
		worklib.hazard_process:v <0x1c027371>
			streams:   1, words:  1485
	Building instance specific data structures.
	Loading native compiled code:     .................... Done
	Design hierarchy summary:
		                  Instances  Unique
		Modules:                 17      15
		Registers:              192     160
		Scalar wires:            53       -
		Vectored wires:          55       -
		Always blocks:           42      36
		Initial blocks:           1       1
		Cont. assignments:       26      55
		Pseudo assignments:       4       4
		Simulation timescale:  10ps
	Writing initial simulation snapshot: worklib.Final_tb:v
Loading snapshot worklib.Final_tb:v .................... Done
*Verdi* Loading libsscore_ius152.so
ncsim> source /usr/cad/cadence/INCISIV/cur/tools/inca/files/ncsimrc
ncsim> run
-----------------------------------------------------

START!!! Simulation Start .....

-----------------------------------------------------

FSDB Dumper for IUS, Release Verdi_N-2017.12, Linux, 11/12/2017
(C) 1996 - 2017 by Synopsys, Inc.
*Verdi* FSDB WARNING: The FSDB file already exists. Overwriting the FSDB file may crash the programs that are using this file.
*Verdi* : Create FSDB file 'Final.fsdb'
*Verdi* : Begin traversing the scope (Final_tb), layer (0).
*Verdi* : Enable +mda dumping.
*Verdi* : End of traversing.
*Verdi* : Begin traversing the scopes, layer (0).
*Verdi* : End of traversing.
  Addr = 0xff  Correct ans: 0x00000000  Your ans: 0x00000000 AT time: 88500
  Addr = 0xff  Correct ans: 0x00000001  Your ans: 0x00000000 AT time: 100500
  Addr = 0xff  Correct ans: 0x00000001  Your ans: 0x00000000 AT time: 100500
  Addr = 0xff  Correct ans: 0x00000001  Your ans: 0x00000001 AT time: 100500
  Addr = 0xff  Correct ans: 0x00000001  Your ans: 0x00000000 AT time: 135500
  Addr = 0xff  Correct ans: 0x00000001  Your ans: 0x00000000 AT time: 135500
  Addr = 0xff  Correct ans: 0x00000001  Your ans: 0x00000001 AT time: 135500
  Addr = 0xff  Correct ans: 0x00000002  Your ans: 0x00000000 AT time: 167500
  Addr = 0xff  Correct ans: 0x00000002  Your ans: 0x00000000 AT time: 167500
  Addr = 0xff  Correct ans: 0x00000002  Your ans: 0x00000002 AT time: 167500
  Addr = 0xff  Correct ans: 0x00000003  Your ans: 0x00000000 AT time: 193500
  Addr = 0xff  Correct ans: 0x00000003  Your ans: 0x00000000 AT time: 193500
  Addr = 0xff  Correct ans: 0x00000003  Your ans: 0x00000003 AT time: 193500
  Addr = 0xff  Correct ans: 0x00000005  Your ans: 0x00000000 AT time: 219500
  Addr = 0xff  Correct ans: 0x00000005  Your ans: 0x00000000 AT time: 219500
  Addr = 0xff  Correct ans: 0x00000005  Your ans: 0x00000005 AT time: 219500
  Addr = 0xff  Correct ans: 0x00000008  Your ans: 0x00000000 AT time: 245500
  Addr = 0xff  Correct ans: 0x00000008  Your ans: 0x00000000 AT time: 245500
  Addr = 0xff  Correct ans: 0x00000008  Your ans: 0x00000008 AT time: 245500
  Addr = 0xff  Correct ans: 0x0000000d  Your ans: 0x00000000 AT time: 271500
  Addr = 0xff  Correct ans: 0x0000000d  Your ans: 0x00000000 AT time: 271500
  Addr = 0xff  Correct ans: 0x0000000d  Your ans: 0x0000000d AT time: 271500
  Addr = 0xff  Correct ans: 0x00000015  Your ans: 0x00000000 AT time: 297500
  Addr = 0xff  Correct ans: 0x00000015  Your ans: 0x00000000 AT time: 297500
  Addr = 0xff  Correct ans: 0x00000015  Your ans: 0x00000015 AT time: 297500
  Addr = 0xff  Correct ans: 0x00000022  Your ans: 0x00000000 AT time: 323500
  Addr = 0xff  Correct ans: 0x00000022  Your ans: 0x00000000 AT time: 323500
  Addr = 0xff  Correct ans: 0x00000022  Your ans: 0x00000022 AT time: 323500
  Addr = 0xff  Correct ans: 0x00000037  Your ans: 0x00000000 AT time: 349500
  Addr = 0xff  Correct ans: 0x00000037  Your ans: 0x00000000 AT time: 349500
  Addr = 0xff  Correct ans: 0x00000037  Your ans: 0x00000037 AT time: 349500
  Addr = 0xff  Correct ans: 0x00000059  Your ans: 0x00000000 AT time: 375500
  Addr = 0xff  Correct ans: 0x00000059  Your ans: 0x00000000 AT time: 375500
  Addr = 0xff  Correct ans: 0x00000059  Your ans: 0x00000059 AT time: 375500
  Addr = 0xff  Correct ans: 0x00000090  Your ans: 0x00000000 AT time: 401500
  Addr = 0xff  Correct ans: 0x00000090  Your ans: 0x00000000 AT time: 401500
  Addr = 0xff  Correct ans: 0x00000090  Your ans: 0x00000090 AT time: 401500
  Addr = 0xff  Correct ans: 0x000000e9  Your ans: 0x00000000 AT time: 427500
  Addr = 0xff  Correct ans: 0x000000e9  Your ans: 0x00000000 AT time: 427500
  Addr = 0xff  Correct ans: 0x000000e9  Your ans: 0x000000e9 AT time: 427500
  Addr = 0xff  Correct ans: 0x00000179  Your ans: 0x00000000 AT time: 453500
  Addr = 0xff  Correct ans: 0x00000179  Your ans: 0x00000000 AT time: 453500
  Addr = 0xff  Correct ans: 0x00000179  Your ans: 0x00000179 AT time: 453500
  Addr = 0xff  Correct ans: 0x00000262  Your ans: 0x00000000 AT time: 479500
  Addr = 0xff  Correct ans: 0x00000262  Your ans: 0x00000000 AT time: 479500
  Addr = 0xff  Correct ans: 0x00000262  Your ans: 0x00000262 AT time: 479500
  Addr = 0xff  Correct ans: 0x00000262  Your ans: 0x00000000 AT time: 3361500
  Addr = 0xff  Correct ans: 0x00000262  Your ans: 0x00000000 AT time: 3361500
  Addr = 0xff  Correct ans: 0x00000262  Your ans: 0x00000262 AT time: 3361500
  Addr = 0xff  Correct ans: 0x00000179  Your ans: 0x00000000 AT time: 3383500
  Addr = 0xff  Correct ans: 0x00000179  Your ans: 0x00000000 AT time: 3383500
  Addr = 0xff  Correct ans: 0x00000179  Your ans: 0x00000179 AT time: 3383500
  Addr = 0xff  Correct ans: 0x000000e9  Your ans: 0x00000000 AT time: 3399500
  Addr = 0xff  Correct ans: 0x000000e9  Your ans: 0x00000000 AT time: 3399500
  Addr = 0xff  Correct ans: 0x000000e9  Your ans: 0x000000e9 AT time: 3399500
  Addr = 0xff  Correct ans: 0x00000090  Your ans: 0x00000000 AT time: 3415500
  Addr = 0xff  Correct ans: 0x00000090  Your ans: 0x00000000 AT time: 3415500
  Addr = 0xff  Correct ans: 0x00000090  Your ans: 0x00000090 AT time: 3415500
  Addr = 0xff  Correct ans: 0x00000059  Your ans: 0x00000000 AT time: 3431500
  Addr = 0xff  Correct ans: 0x00000059  Your ans: 0x00000000 AT time: 3431500
  Addr = 0xff  Correct ans: 0x00000059  Your ans: 0x00000059 AT time: 3431500
  Addr = 0xff  Correct ans: 0x00000037  Your ans: 0x00000000 AT time: 3447500
  Addr = 0xff  Correct ans: 0x00000037  Your ans: 0x00000000 AT time: 3447500
  Addr = 0xff  Correct ans: 0x00000037  Your ans: 0x00000037 AT time: 3447500
  Addr = 0xff  Correct ans: 0x00000022  Your ans: 0x00000000 AT time: 3463500
  Addr = 0xff  Correct ans: 0x00000022  Your ans: 0x00000000 AT time: 3463500
  Addr = 0xff  Correct ans: 0x00000022  Your ans: 0x00000022 AT time: 3463500
  Addr = 0xff  Correct ans: 0x00000015  Your ans: 0x00000000 AT time: 3479500
  Addr = 0xff  Correct ans: 0x00000015  Your ans: 0x00000000 AT time: 3479500
  Addr = 0xff  Correct ans: 0x00000015  Your ans: 0x00000015 AT time: 3479500
  Addr = 0xff  Correct ans: 0x0000000d  Your ans: 0x00000000 AT time: 3495500
  Addr = 0xff  Correct ans: 0x0000000d  Your ans: 0x00000000 AT time: 3495500
  Addr = 0xff  Correct ans: 0x0000000d  Your ans: 0x0000000d AT time: 3495500
  Addr = 0xff  Correct ans: 0x00000008  Your ans: 0x00000000 AT time: 3511500
  Addr = 0xff  Correct ans: 0x00000008  Your ans: 0x00000000 AT time: 3511500
  Addr = 0xff  Correct ans: 0x00000008  Your ans: 0x00000008 AT time: 3511500
  Addr = 0xff  Correct ans: 0x00000005  Your ans: 0x00000000 AT time: 3527500
  Addr = 0xff  Correct ans: 0x00000005  Your ans: 0x00000000 AT time: 3527500
  Addr = 0xff  Correct ans: 0x00000005  Your ans: 0x00000005 AT time: 3527500
  Addr = 0xff  Correct ans: 0x00000003  Your ans: 0x00000000 AT time: 3543500
  Addr = 0xff  Correct ans: 0x00000003  Your ans: 0x00000000 AT time: 3543500
  Addr = 0xff  Correct ans: 0x00000003  Your ans: 0x00000003 AT time: 3543500
  Addr = 0xff  Correct ans: 0x00000002  Your ans: 0x00000000 AT time: 3559500
  Addr = 0xff  Correct ans: 0x00000002  Your ans: 0x00000000 AT time: 3559500
  Addr = 0xff  Correct ans: 0x00000002  Your ans: 0x00000002 AT time: 3559500
  Addr = 0xff  Correct ans: 0x00000001  Your ans: 0x00000000 AT time: 3575500
  Addr = 0xff  Correct ans: 0x00000001  Your ans: 0x00000000 AT time: 3575500
  Addr = 0xff  Correct ans: 0x00000001  Your ans: 0x00000001 AT time: 3575500
  Addr = 0xff  Correct ans: 0x00000001  Your ans: 0x00000000 AT time: 3591500
  Addr = 0xff  Correct ans: 0x00000001  Your ans: 0x00000000 AT time: 3591500
  Addr = 0xff  Correct ans: 0x00000001  Your ans: 0x00000001 AT time: 3591500
  Addr = 0xff  Correct ans: 0x00000000  Your ans: 0x00000000 AT time: 3607500
  Addr = 0xff  Correct ans: 0xfffffd5d  Your ans: 0x00000000 AT time: 3623500
  Addr = 0xff  Correct ans: 0xfffffd5d  Your ans: 0x00000000 AT time: 3623500
  Addr = 0xff  Correct ans: 0xfffffd5d  Your ans: 0xfffffd5d AT time: 3623500
--------------------------- Simulation FINISH !!---------------------------
============================================================================

 \(^o^)/ CONGRATULATIONS!!  The simulation result is PASS!!!

============================================================================
Simulation complete via $finish(1) at time 36265 NS + 0
./Final_tb.v:159 	       #(`CYCLE) $finish;		   
ncsim> exit
TOOL:	ncverilog	15.20-s039: Exiting on Jun 25, 2020 at 01:25:58 CST  (total: 00:00:02)
